Example workflow - DFO Maritimes MPAs
…
#> 66 66  0.3 1000          InvertFilterFeederBenthicNonColonial_4X
#> 67 67  0.3 1000           InvertZoopiscivoreSmallMediumLarge_4VW
#> 68 68  0.3 1000            InvertZoopiscivoreSmallMediumLarge_4X
#> 69 69  0.3 1000                  Seabird_plunge_diving_piscivore
#> 70 70  0.3 1000                 Seabird_pursuit_diving_piscivore
#> 71 71  0.3 1000               Seabird_pursuit_diving_planktivore
#> 72 72  0.3 1000               Seabird_shallow_pursuit_generalist
#> 73 73  0.3 1000                Seabird_ship_following_generalist
#> 74 74  0.3 1000              Seabird_surface_seizing_planktivore
#> 75 75  0.3 1000 Seabird_surface_shallow_diving_coastal_piscivore
#> 76 76  0.3 1000         Seabird_surface_shallow_diving_piscivore
#> 77 77  0.3 1000                               RoundnoseGrenadier
#> 78 78  0.3 1000                                 AtlanticWolffish
puvspr
#> # A tibble: 28,689 × 3
#> # Groups:   species [78]
#>    species pu       amount
#>      <int> <chr>     <dbl>
#>  1       1 1695  16481748.
#>  2       1 1715  36180234.
#>  3       1 1718   4545594.
#>  4       1 1738  14234663.
#>  5       1 1739    224554.
#>  6       1 1741  50303463.
#>  7       1 1762  94320401.
#>  8       1 1765    911743.
#>  9       1 1785  90769125.
#> 10       1 1786   2418145.
#> # ℹ 28,679 more rows
pu_dat
#> # A tibble: 2,794 × 5
#>    id      cost status  xloc  yloc
#>    <chr>  <dbl>  <dbl> <dbl> <dbl>
#>  1 1     10000       0  42.8 -67.7
#>  2 2     10179.      0  43.0 -67.7
#>  3 3     10000       0  42.5 -67.7
#>  4 4     10000       0  42.7 -67.7
#>  5 5     11164.      0  42.9 -67.7
#>  6 6     10041.      0  43.1 -67.7
#>  7 7     10000       0  43.3 -67.7
#>  8 8     10000       0  42.4 -67.6
#>  9 9     10000       0  42.6 -67.6
#> 10 10    10676.      0  42.8 -67.6
#> # ℹ 2,784 more rows
…
